<svg xmlns="http://www.w3.org/2000/svg" width="177" height="176" viewBox="0 0 177 176">
    <g fill="none" fill-rule="nonzero">
        <path fill="#FAFAFA" d="M.921 0h176v176h-176z"/>
        <g fill="#F8D75C" stroke="#122A4F" stroke-width="5">
            <path d="M83.199 52.088a.7.7 0 0 0-1.092 0L42.816 101.05a.7.7 0 0 0 .546 1.138h78.582a.7.7 0 0 0 .546-1.138L83.199 52.088z" opacity=".2"/>
            <path d="M93.199 64.088a.7.7 0 0 0-1.092 0L52.816 113.05a.7.7 0 0 0 .546 1.138h78.582a.7.7 0 0 0 .546-1.138L93.199 64.088z"/>
        </g>
    </g>
</svg>
