<svg xmlns="http://www.w3.org/2000/svg" width="177" height="176" viewBox="0 0 177 176">
    <g fill="none" fill-rule="nonzero">
        <path fill="#FAFAFA" d="M.921 0h176v176h-176z"/>
        <g fill="#F8D75C" stroke="#122A4F" stroke-width="5.304" transform="translate(45 54)">
            <ellipse cx="34.307" cy="34.359" opacity=".2" rx="31.655" ry="31.707"/>
            <ellipse cx="47.693" cy="47.641" rx="31.655" ry="31.707"/>
        </g>
    </g>
</svg>
