<?xml version="1.0" encoding="UTF-8"?>
<svg width="240px" height="260px" viewBox="0 0 240 260" version="1.1" xmlns="http://www.w3.org/2000/svg" xmlns:xlink="http://www.w3.org/1999/xlink">
    <!-- Generator: Sketch 49.1 (51147) - http://www.bohemiancoding.com/sketch -->
    <title>Group</title>
    <desc>Created with Sketch.</desc>
    <defs>
        <path d="M2,0 L238,0 C239.104569,-2.02906125e-16 240,0.8954305 240,2 L240,258 C240,259.104569 239.104569,260 238,260 L2,260 C0.8954305,260 1.3527075e-16,259.104569 0,258 L0,2 C-1.3527075e-16,0.8954305 0.8954305,2.02906125e-16 2,0 Z" id="path-1"></path>
        <mask id="mask-2" maskContentUnits="userSpaceOnUse" maskUnits="objectBoundingBox" x="0" y="0" width="240" height="260" fill="white">
            <use xlink:href="#path-1"></use>
        </mask>
        <mask id="mask-4" maskContentUnits="userSpaceOnUse" maskUnits="objectBoundingBox" x="0" y="0" width="240" height="260" fill="white">
            <use xlink:href="#path-1"></use>
        </mask>
    </defs>
    <g id="ClearOne" stroke="none" stroke-width="1" fill="none" fill-rule="evenodd">
        <g id="3.0-addNew_empty" transform="translate(-60.000000, -101.000000)">
            <g id="Group" transform="translate(60.000000, 101.000000)">
                <mask id="mask-3" fill="white">
                    <use xlink:href="#path-1"></use>
                </mask>
                <ellipse id="Oval-4" fill="#5A758A" opacity="0.200000003" mask="url(#mask-3)" cx="11.9034091" cy="176.5" rx="124.903409" ry="123.5"></ellipse>
            </g>
        </g>
    </g>
</svg>