<svg xmlns="http://www.w3.org/2000/svg" width="22" height="17" viewBox="0 0 22 17">
    <g fill="none" fill-rule="evenodd">
        <path d="M-4-6h29v29H-4z"/>
        <path fill="#000" fill-rule="nonzero" d="M6.875 13.539L1.836 8.5.12 10.204l6.755 6.754 14.5-14.5L19.671.755z"/>
    </g>
</svg>
