<svg xmlns="http://www.w3.org/2000/svg" width="40" height="40" viewBox="0 0 40 40">
    <g fill="none" fill-rule="evenodd">
        <circle cx="20" cy="20" r="20" fill="#DBDEE3"/>
        <g stroke="#354B6C" stroke-linecap="square" stroke-width="1.6">
            <path d="M14 14l11.806 11.806M14 25.806L25.806 14"/>
        </g>
    </g>
</svg>
