<svg xmlns="http://www.w3.org/2000/svg" width="16" height="16" viewBox="0 0 16 16">
    <g fill="none" fill-rule="evenodd" stroke="#F8D75C" stroke-linecap="square" stroke-width="2">
        <path d="M0 0l15.556 15.556M0 15.556L15.556 0"/>
    </g>
</svg>
