<svg xmlns="http://www.w3.org/2000/svg" width="22" height="14" viewBox="0 0 22 14">
    <path fill="#F8D75C" fill-rule="nonzero" d="M0 14h22v-2.333H0V14zm0-5.833h22V5.833H0v2.334zM0 0v2.333h22V0H0z"/>
</svg>
