{
  "access_token": "6695660551.98d6fab.e80076738d4f47ad86409ac4d2fafbf6",
  "user": {
    "id": "6695660551",
    "username": "dmitry1682",
    "profile_picture": "https://instagram.fham1-1.fna.fbcdn.net/vp/a8539c22ed9fec8e1c43b538b1ebfd1d/5C5A1A7A/t51.2885-19/11906329_960233084022564_1448528159_a.jpg",
    "full_name": "dmitry",
    "bio": "",
    "website": "",
    "is_business": false
  }
}